<svg width="44" height="85" viewBox="0 0 44 85" fill="none" xmlns="http://www.w3.org/2000/svg">
<path d="M6.06214 1.39371C5.79177 1.97437 5.76004 2.64221 5.97387 3.25166C6.1877 3.8611 6.62975 4.36272 7.20365 4.64717C7.49075 4.78797 7.80188 4.87019 8.11917 4.8891C8.43645 4.908 8.75363 4.86322 9.05248 4.75732C9.35134 4.65143 9.62596 4.48651 9.86058 4.27205C10.0952 4.05758 10.2852 3.7978 10.4196 3.50763C10.5556 3.21819 10.6334 2.90378 10.6487 2.58247C10.664 2.26116 10.6165 1.93928 10.5088 1.63534C10.4012 1.33139 10.2355 1.05136 10.0213 0.811355C9.80717 0.571348 9.54877 0.376089 9.26097 0.236805C8.80758 0.0193803 8.30021 -0.0506531 7.80901 0.0363754C7.3178 0.123404 6.86701 0.363194 6.51898 0.722609C6.33765 0.924363 6.18401 1.15007 6.06214 1.39371ZM2.94915 9.40816C2.85087 9.71377 2.81348 10.0367 2.83915 10.3584C2.86482 10.68 2.95303 10.994 3.0987 11.2822C3.24436 11.5704 3.44459 11.8272 3.68786 12.0377C3.93112 12.2481 4.21259 12.4082 4.51604 12.5085C5.12288 12.7055 5.77942 12.6527 6.34294 12.3615C6.90645 12.0703 7.33138 11.5642 7.52535 10.9533C7.71937 10.3405 7.66527 9.67222 7.37487 9.09452C7.08448 8.51683 6.5814 8.07669 5.97559 7.87031C5.55209 7.72667 5.09885 7.70424 4.66609 7.80552C4.23334 7.90679 3.83798 8.12781 3.52384 8.44407C3.25601 8.70786 3.05334 9.03204 2.93201 9.39079L2.94915 9.40816ZM0.894976 17.8084C0.786066 18.4444 0.930991 19.101 1.29797 19.634C1.66495 20.167 2.22404 20.533 2.85264 20.6518C3.17145 20.7143 3.49874 20.7111 3.81494 20.6425C4.13115 20.5738 4.42978 20.4411 4.69297 20.2523C4.95616 20.0635 5.17852 19.8225 5.34675 19.5436C5.51498 19.2647 5.62562 18.9537 5.67206 18.6292C5.78097 17.9932 5.63605 17.3367 5.26907 16.8037C4.90209 16.2706 4.343 15.9046 3.71441 15.7858C3.33159 15.7136 2.93821 15.7361 2.56778 15.8514C2.19735 15.9666 1.86085 16.1712 1.58698 16.4477C1.2139 16.8055 0.965325 17.2763 0.877838 17.791L0.894976 17.8084ZM0.0181584 26.4397C0.0233189 27.085 0.280285 27.7048 0.732943 28.1636C1.1856 28.6224 1.79717 28.8829 2.43406 28.8884C2.75232 28.8914 3.06736 28.8306 3.36101 28.7095C3.65466 28.5883 3.92111 28.4092 4.145 28.1824C4.36888 27.9556 4.54576 27.6857 4.66544 27.3881C4.78512 27.0906 4.84522 26.7714 4.84228 26.449C4.86011 25.8036 4.62487 25.1746 4.18801 24.6996C3.75116 24.2246 3.14825 23.9423 2.51117 23.9144C2.17672 23.8998 1.84367 23.9559 1.53321 24.0791C1.22275 24.2022 0.941682 24.3898 0.707896 24.6299C0.47515 24.8627 0.292375 25.1419 0.170813 25.4501C0.0492512 25.7584 -0.00853682 26.0892 0.00101803 26.4223L0.0181584 26.4397ZM0.420101 35.1298C0.458481 35.4504 0.559063 35.7608 0.716035 36.043C0.873007 36.3253 1.08327 36.5738 1.33468 36.7743C1.58609 36.9748 1.87367 37.1233 2.18084 37.2112C2.488 37.2991 2.80866 37.3247 3.12432 37.2865C3.44042 37.249 3.74539 37.1482 4.02158 36.9901C4.29777 36.832 4.53971 36.6197 4.7334 36.3654C4.92709 36.111 5.06869 35.8198 5.15001 35.5085C5.23133 35.1972 5.25075 34.872 5.20716 34.5516C5.12138 33.9104 4.78866 33.327 4.28185 32.9293C3.77504 32.5315 3.13544 32.3518 2.50312 32.4296C1.97499 32.4942 1.48468 32.7344 1.10879 33.1128C0.849123 33.3688 0.650713 33.6817 0.528466 34.0281C0.406219 34.3744 0.363315 34.7452 0.402971 35.1125L0.420101 35.1298ZM2.16847 43.7756C2.35826 44.3941 2.78132 44.914 3.3451 45.2213C3.90889 45.5287 4.56751 45.5986 5.1769 45.4157C5.48167 45.3256 5.76518 45.1751 6.01105 44.9728C6.25693 44.7705 6.4603 44.5204 6.60943 44.2369C6.75855 43.9535 6.85049 43.6424 6.87992 43.3215C6.90934 43.0006 6.87568 42.6763 6.78087 42.3673C6.59108 41.7488 6.16803 41.2289 5.60425 40.9216C5.04046 40.6142 4.38183 40.5443 3.77244 40.7272C3.39388 40.8399 3.04952 41.0457 2.76975 41.3262C2.48157 41.6348 2.27908 42.0154 2.18248 42.4301C2.08587 42.8447 2.09853 43.279 2.21918 43.6895L2.16847 43.7756ZM5.55036 51.843C5.7054 52.1305 5.91536 52.3843 6.16788 52.5893C6.4204 52.7943 6.71034 52.9464 7.02061 53.0366C7.33089 53.1269 7.65521 53.1534 7.97443 53.1147C8.29365 53.076 8.60131 52.9729 8.87927 52.8113C9.44265 52.5118 9.86327 51.9967 10.0487 51.3792C10.2342 50.7616 10.1693 50.0921 9.86833 49.5178C9.56682 48.9437 9.05397 48.512 8.44249 48.3176C7.83101 48.1231 7.17092 48.1818 6.60725 48.4807C6.42004 48.6215 6.25436 48.7893 6.11543 48.9789C5.72797 49.3272 5.46354 49.7944 5.36168 50.3107C5.25982 50.827 5.32601 51.3645 5.55036 51.843ZM10.3435 59.2101C10.5439 59.4608 10.7907 59.6696 11.0698 59.8245C11.3489 59.9794 11.6548 60.0774 11.97 60.1128C12.2852 60.1482 12.6036 60.1204 12.9069 60.0309C13.2102 59.9415 13.4925 59.7922 13.7377 59.5915C13.983 59.3911 14.1865 59.1432 14.3364 58.862C14.4863 58.5809 14.5798 58.2719 14.6114 57.9529C14.643 57.6338 14.6122 57.3109 14.5208 57.0026C14.4293 56.6944 14.2789 56.4067 14.0782 56.1562C13.6764 55.6522 13.0959 55.3276 12.4633 55.2529C11.8307 55.1783 11.1973 55.3597 10.7011 55.7576L10.5145 55.9466C10.0927 56.3687 9.84178 56.9358 9.8102 57.5384C9.77863 58.1411 9.96863 58.7366 10.3435 59.2101ZM16.1539 62.1092C15.7418 62.5977 15.5391 63.2338 15.5903 63.8782C15.6415 64.5227 15.9423 65.123 16.427 65.5479C16.6694 65.7589 16.9501 65.9197 17.2529 66.0209C17.5557 66.1222 17.8746 66.1621 18.1914 66.1381C18.5081 66.1142 18.8164 66.0269 19.0984 65.8814C19.3805 65.7359 19.6308 65.535 19.8349 65.2903C20.243 64.7975 20.4398 64.1587 20.3822 63.514C20.3247 62.8694 20.0174 62.2715 19.5278 61.8514C19.0633 61.45 18.4683 61.2393 17.8616 61.2616C17.2549 61.2839 16.6813 61.5374 16.2555 61.9716L16.1198 62.1091L16.1539 62.1092ZM22.6406 67.2748C22.3484 67.8222 22.2756 68.4644 22.4373 69.0693C22.5989 69.6743 22.9825 70.1958 23.5093 70.5267C23.7874 70.6859 24.0933 70.788 24.4093 70.8273C24.7253 70.8666 25.0452 70.8422 25.3506 70.7556C25.6559 70.669 25.9407 70.5219 26.1885 70.3226C26.4363 70.1234 26.6423 69.8761 26.7945 69.5948C26.9453 69.3144 27.0398 69.006 27.0726 68.6873C27.1054 68.3687 27.0759 68.0459 26.9857 67.7374C26.8955 67.429 26.7464 67.1409 26.5469 66.8897C26.3474 66.6385 26.1015 66.429 25.8231 66.2732C25.3499 66.0015 24.8019 65.8981 24.2674 65.9798C23.7328 66.0615 23.2428 66.3234 22.8764 66.7234C22.7801 66.8987 22.7011 67.0834 22.6406 67.2748ZM29.9379 70.9594C29.8492 71.2674 29.8215 71.5907 29.8565 71.9109C29.8916 72.231 29.9886 72.5417 30.1421 72.825C30.2956 73.1083 30.5025 73.3587 30.751 73.5618C30.9994 73.7649 31.2845 73.9166 31.5898 74.0084C31.8947 74.1016 32.2141 74.133 32.5298 74.1009C32.8454 74.0688 33.151 73.9737 33.429 73.8211C33.707 73.6686 33.9519 73.4616 34.1497 73.212C34.3475 72.9624 34.4943 72.6751 34.5816 72.3667C34.6704 72.0587 34.6981 71.7354 34.663 71.4152C34.628 71.095 34.5309 70.7844 34.3774 70.501C34.2239 70.2177 34.017 69.9673 33.7686 69.7643C33.5202 69.5612 33.2351 69.4094 32.9298 69.3177C32.5129 69.192 32.0715 69.1821 31.6521 69.2893C31.2326 69.3964 30.8506 69.6165 30.5464 69.9264C30.2608 70.2127 30.0516 70.5679 29.9379 70.9594Z" fill="#FA8D38"/>
<path fill-rule="evenodd" clip-rule="evenodd" d="M27.5035 57.1766C28.1749 56.4968 29.2633 56.4968 29.9347 57.1766L42.5014 69.9029C43.313 70.7248 43.2616 72.0614 42.3893 72.8186L28.8379 84.581C28.117 85.2066 27.0318 85.1221 26.4139 84.3921C25.796 83.6622 25.8795 82.5632 26.6003 81.9375L38.9435 71.2239L27.5035 59.6385C26.8322 58.9587 26.8322 57.8565 27.5035 57.1766Z" fill="#FA8D38"/>
</svg>
