<svg width="275" height="243" viewBox="0 0 275 243" fill="none" xmlns="http://www.w3.org/2000/svg">
<path d="M197.97 21.6572C197.646 22.2085 197.117 22.6099 196.498 22.7745C195.879 22.939 195.221 22.8536 194.664 22.5366C194.388 22.3759 194.146 22.1625 193.952 21.9083C193.758 21.6541 193.616 21.3643 193.534 21.0553C193.452 20.7463 193.432 20.4243 193.475 20.1075C193.518 19.7908 193.622 19.4856 193.783 19.2093C193.944 18.933 194.158 18.6911 194.412 18.4973C194.667 18.3035 194.957 18.1617 195.266 18.08C195.575 17.9982 195.898 17.9781 196.215 18.0209C196.532 18.0636 196.837 18.1684 197.114 18.3291C197.473 18.5349 197.773 18.8287 197.987 19.1828C198.201 19.5369 198.321 19.9396 198.336 20.3529C198.34 20.8134 198.213 21.2657 197.97 21.6572ZM190.85 17.6882C190.571 18.2702 190.072 18.7177 189.464 18.9324C188.855 19.1471 188.185 19.1114 187.603 18.8332C187.311 18.6955 187.05 18.5013 186.834 18.2618C186.618 18.0224 186.452 17.7425 186.345 17.4384C186.239 17.1344 186.193 16.8122 186.212 16.4905C186.231 16.1688 186.314 15.8541 186.456 15.5647C186.596 15.2753 186.792 15.0166 187.032 14.8034C187.273 14.5902 187.554 14.4268 187.858 14.3225C188.162 14.2182 188.484 14.1752 188.805 14.1959C189.126 14.2166 189.44 14.3006 189.728 14.4431C190.125 14.6352 190.461 14.9311 190.703 15.2994C190.944 15.6677 191.081 16.0945 191.099 16.5344C191.112 16.9336 191.026 17.3299 190.85 17.6882ZM183.408 14.2427C183.29 14.5399 183.114 14.8108 182.891 15.0401C182.668 15.2694 182.401 15.4525 182.107 15.5789C181.813 15.7053 181.497 15.7726 181.177 15.7768C180.857 15.7811 180.539 15.7223 180.242 15.6038C179.944 15.4856 179.673 15.31 179.444 15.0871C179.214 14.8641 179.031 14.5982 178.904 14.3044C178.778 14.0106 178.711 13.6948 178.706 13.375C178.702 13.0552 178.761 12.7377 178.88 12.4407C178.998 12.1435 179.174 11.8725 179.397 11.6433C179.62 11.414 179.886 11.2309 180.18 11.1045C180.474 10.9781 180.79 10.9108 181.11 10.9066C181.43 10.9023 181.748 10.9611 182.046 11.0796C182.488 11.2531 182.87 11.5521 183.145 11.9399C183.419 12.3276 183.574 12.7871 183.59 13.2618C183.613 13.5938 183.568 13.9271 183.457 14.2409L183.408 14.2427ZM175.791 11.3394C175.589 11.9495 175.154 12.4551 174.581 12.7458C174.007 13.0365 173.342 13.0889 172.73 12.8914C172.423 12.7943 172.138 12.6372 171.892 12.4292C171.646 12.2212 171.443 11.9665 171.296 11.6799C171.15 11.3932 171.061 11.0803 171.036 10.7592C171.011 10.4382 171.05 10.1153 171.151 9.8095C171.249 9.50248 171.406 9.21779 171.614 8.97192C171.822 8.72606 172.077 8.5239 172.364 8.3772C172.651 8.23049 172.964 8.14213 173.285 8.11726C173.607 8.09239 173.93 8.13152 174.236 8.23233C174.708 8.38868 175.122 8.68587 175.42 9.08388C175.718 9.48189 175.887 9.9616 175.904 10.4585C175.922 10.721 175.899 10.9847 175.836 11.2403L175.791 11.3394ZM167.998 8.9298C167.923 9.24182 167.787 9.53592 167.597 9.79508C167.408 10.0542 167.169 10.2734 166.894 10.4399C166.62 10.6064 166.315 10.717 165.997 10.7653C165.679 10.8136 165.355 10.7986 165.044 10.7213C164.733 10.6434 164.442 10.5053 164.185 10.3147C163.928 10.1242 163.711 9.88501 163.547 9.6108C163.383 9.3366 163.274 9.03274 163.228 8.71661C163.181 8.40048 163.197 8.07827 163.275 7.76834C163.432 7.14242 163.832 6.60459 164.386 6.27319C164.941 5.94178 165.604 5.84393 166.231 6.00118C166.758 6.13315 167.226 6.43779 167.561 6.86654C167.895 7.29528 168.076 7.82343 168.075 8.36686C168.091 8.55428 168.082 8.74309 168.047 8.92797L167.998 8.9298ZM160.056 7.08592C159.94 7.71945 159.577 8.28117 159.048 8.64802C158.518 9.01487 157.864 9.15691 157.229 9.043C156.595 8.92709 156.033 8.56478 155.666 8.03543C155.299 7.50607 155.157 6.85285 155.271 6.21896C155.387 5.58544 155.749 5.0237 156.279 4.65686C156.809 4.29001 157.463 4.14797 158.097 4.26188C158.655 4.35968 159.162 4.64874 159.529 5.07936C159.897 5.50998 160.103 6.0552 160.112 6.62115C160.118 6.73505 160.115 6.84932 160.1 6.9625L160.056 7.08592ZM152.011 5.75724C151.945 6.39907 151.626 6.98829 151.125 7.39531C150.624 7.80233 149.982 7.9938 149.339 7.92767C149.019 7.89506 148.708 7.79926 148.425 7.64582C148.142 7.49238 147.892 7.28437 147.69 7.0338C147.487 6.78323 147.337 6.49511 147.247 6.18608C147.157 5.87705 147.13 5.55325 147.166 5.23347C147.201 4.91537 147.299 4.60741 147.454 4.32723C147.609 4.04706 147.818 3.80021 148.069 3.60077C148.319 3.40133 148.607 3.25321 148.915 3.16495C149.223 3.0767 149.545 3.05002 149.863 3.08643C150.447 3.15252 150.987 3.42714 151.384 3.85968C151.781 4.29221 152.008 4.85353 152.024 5.44021L152.037 5.78063L152.011 5.75724ZM143.891 4.99152C143.865 5.63455 143.585 6.24126 143.113 6.6789C142.641 7.11654 142.014 7.34945 141.371 7.32668C141.05 7.31418 140.734 7.2384 140.443 7.10369C140.152 6.96898 139.89 6.77798 139.672 6.54173C139.455 6.30549 139.287 6.02864 139.177 5.7271C139.067 5.42557 139.018 5.10532 139.032 4.78478C139.045 4.46416 139.121 4.14919 139.256 3.85797C139.39 3.56675 139.582 3.30501 139.818 3.0879C140.055 2.87078 140.332 2.70253 140.633 2.59282C140.935 2.48311 141.256 2.43416 141.577 2.44871C142.19 2.47471 142.77 2.73089 143.202 3.16608C143.635 3.60128 143.886 4.1834 143.908 4.79606L143.915 4.9906L143.891 4.99152ZM135.741 4.76259C135.765 5.4075 135.532 6.03565 135.093 6.50886C134.654 6.98206 134.044 7.26156 133.399 7.28586C132.753 7.31017 132.125 7.07727 131.651 6.63844C131.177 6.1996 130.898 5.59075 130.873 4.94584C130.849 4.30093 131.082 3.67276 131.521 3.19956C131.961 2.72636 132.57 2.44686 133.216 2.42255C133.861 2.39825 134.49 2.63114 134.963 3.06998C135.437 3.50882 135.717 4.11767 135.741 4.76259ZM125.397 7.73322C125.078 7.76162 124.756 7.72686 124.451 7.63091C124.145 7.53496 123.861 7.3797 123.616 7.17405C123.37 6.96841 123.168 6.71641 123.02 6.43247C122.872 6.14852 122.782 5.83823 122.754 5.51935C122.697 4.87947 122.895 4.24289 123.306 3.74843C123.716 3.25398 124.306 2.94178 124.946 2.87997C125.586 2.82261 126.223 3.02061 126.718 3.4308C127.213 3.84098 127.526 4.43008 127.588 5.06954L127.593 5.21543C127.618 5.82794 127.411 6.42735 127.013 6.8938C126.615 7.36025 126.055 7.65937 125.446 7.73138L125.397 7.73322ZM117.491 8.78572C117.174 8.83854 116.85 8.82831 116.538 8.75562C116.225 8.68293 115.93 8.54923 115.669 8.36216C115.408 8.1751 115.187 7.93836 115.018 7.6656C114.849 7.39284 114.736 7.08943 114.685 6.77281C114.632 6.45647 114.642 6.13283 114.715 5.82046C114.788 5.50809 114.922 5.21317 115.109 4.95266C115.296 4.69215 115.533 4.47123 115.806 4.30252C116.079 4.13381 116.383 4.02069 116.7 3.96966C117.336 3.87004 117.985 4.02591 118.506 4.40326C119.028 4.78061 119.378 5.34875 119.481 5.98348L119.493 6.29961C119.517 6.87823 119.333 7.44623 118.975 7.90159C118.617 8.35695 118.108 8.66978 117.54 8.78389L117.491 8.78572ZM109.678 10.3705C109.367 10.4462 109.044 10.46 108.728 10.4111C108.412 10.3622 108.109 10.2515 107.835 10.0854C107.562 9.91932 107.324 9.70105 107.135 9.44306C106.946 9.18508 106.81 8.89245 106.734 8.58188C106.659 8.27134 106.645 7.94893 106.694 7.63305C106.743 7.31718 106.853 7.01404 107.02 6.74095C107.186 6.46785 107.404 6.23013 107.663 6.04141C107.921 5.8527 108.214 5.71667 108.525 5.64107C108.835 5.56535 109.158 5.55155 109.474 5.60046C109.79 5.64937 110.094 5.76001 110.367 5.92611C110.641 6.0922 110.879 6.31049 111.067 6.56846C111.256 6.82644 111.392 7.11908 111.468 7.42965L111.487 7.91597C111.512 8.463 111.352 9.00269 111.033 9.44777C110.714 9.89285 110.253 10.2173 109.727 10.3686L109.678 10.3705ZM101.983 12.5108C101.37 12.7064 100.705 12.6516 100.132 12.3583C99.559 12.0651 99.1257 11.5572 98.9265 10.9457C98.8299 10.6407 98.7945 10.3197 98.8222 10.0011C98.8499 9.68241 98.9403 9.37233 99.088 9.08859C99.2358 8.80483 99.4381 8.55298 99.6834 8.34741C99.9286 8.14184 100.212 7.98664 100.517 7.89061C101.131 7.695 101.796 7.74983 102.369 8.0431C102.942 8.33637 103.375 8.84422 103.574 9.45572C103.606 9.67305 103.614 9.89317 103.599 10.1123C103.625 10.626 103.487 11.1346 103.206 11.5652C102.924 11.9958 102.513 12.3262 102.032 12.509L101.983 12.5108ZM94.4814 15.2284C93.8829 15.4702 93.2127 15.4647 92.6182 15.2131C92.0237 14.9615 91.5536 14.4844 91.311 13.8866C91.1917 13.589 91.1324 13.2707 91.1366 12.9501C91.1408 12.6295 91.2083 12.3129 91.3354 12.0185C91.4625 11.724 91.6465 11.4576 91.877 11.2344C92.1074 11.0113 92.3797 10.8359 92.6783 10.7182C93.2768 10.4764 93.947 10.4818 94.5415 10.7334C95.136 10.985 95.6062 11.4622 95.8487 12.0599C95.955 12.3214 96.015 12.5993 96.0259 12.8812C96.0463 13.378 95.9138 13.8691 95.6464 14.2884C95.379 14.7077 94.9894 15.0351 94.5301 15.2265L94.4814 15.2284ZM87.2916 18.4699C87.0041 18.6104 86.6916 18.6929 86.3721 18.7127C86.0526 18.7325 85.7324 18.6892 85.4296 18.5853C85.1269 18.4813 84.8476 18.3188 84.6078 18.107C84.368 17.8951 84.1724 17.6381 84.0321 17.3506C83.8914 17.0634 83.8088 16.7512 83.7889 16.432C83.7691 16.1128 83.8125 15.7928 83.9165 15.4904C84.0206 15.1879 84.1832 14.9089 84.3953 14.6694C84.6073 14.4298 84.8646 14.2343 85.1523 14.0941C85.4399 13.9536 85.7523 13.871 86.0718 13.8512C86.3913 13.8314 86.7116 13.8747 87.0143 13.9787C87.317 14.0826 87.5963 14.2452 87.8361 14.457C88.0759 14.6689 88.2715 14.9259 88.4118 15.2133C88.5628 15.5137 88.6499 15.8421 88.6676 16.1777C88.6833 16.6579 88.5564 17.132 88.3028 17.5402C88.0493 17.9484 87.6805 18.2725 87.2429 18.4717L87.2916 18.4699ZM80.2156 22.1454C79.9374 22.3083 79.6295 22.4143 79.3099 22.4574C78.9902 22.5005 78.6653 22.4797 78.3537 22.3963C78.0422 22.3129 77.7504 22.1685 77.4952 21.9715C77.2399 21.7745 77.0264 21.5288 76.867 21.2487C76.5455 20.6892 76.4595 20.0251 76.628 19.4023C76.7965 18.7795 77.2056 18.249 77.7654 17.9275C78.3254 17.6063 78.9902 17.5204 79.6136 17.6887C80.237 17.857 80.7679 18.2657 81.0897 18.8251C81.2886 19.162 81.4033 19.542 81.424 19.9326C81.444 20.3765 81.3419 20.8174 81.1289 21.2075C80.9159 21.5976 80.6001 21.9219 80.2156 22.1454ZM73.4285 26.3701C72.8948 26.7259 72.2421 26.8569 71.6123 26.7348C70.9825 26.6126 70.4263 26.247 70.0647 25.7175C69.8845 25.4526 69.7585 25.1549 69.6937 24.8412C69.629 24.5275 69.6269 24.2042 69.6875 23.8897C69.7481 23.5753 69.8702 23.2758 70.0469 23.0086C70.2235 22.7414 70.4513 22.5116 70.717 22.3325C70.9836 22.1535 71.283 22.029 71.598 21.9661C71.913 21.9032 72.2373 21.9031 72.5523 21.966C72.8673 22.0288 73.1668 22.1533 73.4334 22.3322C73.7001 22.5111 73.9287 22.7409 74.106 23.0085C74.3561 23.3796 74.4989 23.8123 74.5188 24.2592C74.5459 24.6867 74.4597 25.1137 74.2687 25.4971C74.0777 25.8806 73.7889 26.2069 73.4313 26.4431L73.4285 26.3701ZM66.9761 31.0693C66.7231 31.2669 66.4334 31.4126 66.1238 31.4979C65.8142 31.5832 65.4907 31.6065 65.1721 31.5664C64.8534 31.5264 64.5458 31.4238 64.267 31.2645C63.9882 31.1052 63.7437 30.8923 63.5476 30.6383C63.3498 30.3855 63.204 30.096 63.1186 29.7867C63.0332 29.4774 63.0098 29.1543 63.0499 28.8359C63.09 28.5175 63.1928 28.2102 63.3522 27.9317C63.5116 27.6531 63.7246 27.4089 63.979 27.2129C64.232 27.0153 64.5217 26.8696 64.8313 26.7843C65.1409 26.699 65.4643 26.6757 65.783 26.7157C66.1017 26.7558 66.4092 26.8584 66.688 27.0177C66.9668 27.177 67.2114 27.3898 67.4075 27.6439C67.7119 28.0464 67.8836 28.5335 67.8988 29.0377C67.9307 29.4371 67.8634 29.8381 67.703 30.2052C67.5425 30.5723 67.2938 30.8942 66.9789 31.1422L66.9761 31.0693ZM60.8314 36.1708C60.5932 36.3848 60.315 36.5498 60.0129 36.6562C59.7108 36.7627 59.3906 36.8085 59.0707 36.7912C58.7508 36.7738 58.4375 36.6936 58.1487 36.555C57.8599 36.4165 57.6013 36.2224 57.3877 35.9839C57.1748 35.7443 57.0113 35.4651 56.9067 35.1623C56.8021 34.8595 56.7584 34.5391 56.778 34.2193C56.7977 33.8996 56.8803 33.5868 57.0212 33.2991C57.1621 33.0113 57.3585 32.7542 57.5991 32.5424C57.8373 32.3284 58.1155 32.1635 58.4176 32.057C58.7197 31.9506 59.0399 31.9047 59.3598 31.9221C59.6797 31.9394 59.993 32.0197 60.2818 32.1582C60.5706 32.2967 60.8292 32.4908 61.0428 32.7294C61.4136 33.1568 61.6236 33.7 61.637 34.2655C61.6682 34.6304 61.6167 34.9976 61.4861 35.3398C61.3555 35.6821 61.1493 35.9904 60.8828 36.2419L60.8314 36.1708ZM55.0682 41.6963C54.8506 41.9327 54.5882 42.1238 54.2963 42.2584C54.0043 42.393 53.6886 42.4685 53.3673 42.4806C53.046 42.4927 52.7255 42.4412 52.4242 42.3289C52.123 42.2166 51.847 42.0458 51.6121 41.8264C51.3755 41.609 51.1842 41.3468 51.0495 41.0552C50.9148 40.7635 50.8392 40.448 50.827 40.127C50.8149 39.806 50.8666 39.4858 50.979 39.1849C51.0913 38.8839 51.2623 38.6081 51.4819 38.3735C51.9208 37.9034 52.5281 37.626 53.1711 37.6018C53.8141 37.5776 54.4406 37.8085 54.9137 38.2443C55.3656 38.6787 55.6324 39.2705 55.6585 39.8965C55.6961 40.2323 55.6632 40.5722 55.5621 40.8946C55.461 41.2171 55.2937 41.515 55.071 41.7693L55.0682 41.6963ZM49.6624 47.6467C49.2438 48.1359 48.6482 48.4396 48.0061 48.4911C47.3639 48.5427 46.7275 48.3379 46.2361 47.9218C45.7464 47.5036 45.4425 46.9086 45.3909 46.267C45.3393 45.6254 45.5442 44.9896 45.9607 44.4986C46.3793 44.0094 46.9749 43.7058 47.617 43.6542C48.2592 43.6027 48.8956 43.8074 49.387 44.2235C49.6446 44.4387 49.8549 44.7049 50.0046 45.0051C50.1544 45.3054 50.2403 45.6334 50.2572 45.9684C50.2782 46.5828 50.0657 47.1824 49.6624 47.6467ZM44.6822 53.8976C44.2959 54.4102 43.7225 54.7497 43.0869 54.842C42.4513 54.9343 41.8049 54.7721 41.2885 54.3906C41.0291 54.2012 40.8099 53.9624 40.6433 53.6879C40.4768 53.4135 40.3662 53.1088 40.318 52.7915C40.2697 52.4741 40.2848 52.1504 40.3624 51.839C40.4399 51.5275 40.5783 51.2344 40.7697 50.9766C40.9612 50.7193 41.2016 50.5023 41.4773 50.3381C41.7529 50.1738 42.0583 50.0657 42.376 50.0198C42.6936 49.9738 43.0172 49.9912 43.3281 50.0706C43.6391 50.15 43.9312 50.2901 44.1878 50.4827C44.4788 50.7009 44.7172 50.9815 44.8854 51.3039C45.0536 51.6262 45.1474 51.9822 45.1599 52.3455C45.1832 52.9022 45.0146 53.4501 44.6822 53.8976ZM40.0547 60.4518C39.8821 60.7236 39.6572 60.9584 39.3931 61.1428C39.1291 61.3271 38.831 61.4573 38.5162 61.5258C38.2014 61.5942 37.8762 61.5996 37.5593 61.5416C37.2424 61.4837 36.9402 61.3635 36.6701 61.188C36.1314 60.8358 35.7541 60.2849 35.6207 59.6557C35.4874 59.0264 35.6088 58.37 35.9585 57.83C36.3071 57.288 36.8566 56.9062 37.4865 56.7684C38.1164 56.6306 38.7753 56.7479 39.3187 57.0947C39.6495 57.306 39.9243 57.5941 40.1197 57.9345C40.315 58.2748 40.4251 58.6572 40.4405 59.0492C40.4865 59.5339 40.2887 60.0248 40.0547 60.4518ZM35.9745 67.3019C35.6662 67.8689 35.145 68.2903 34.5257 68.4734C33.9065 68.6566 33.2397 68.5865 32.6722 68.2786C32.1047 67.9705 31.6829 67.4498 31.4996 66.8311C31.3163 66.2124 31.3865 65.5463 31.6947 64.9792C32.003 64.4123 32.5241 63.9909 33.1434 63.8078C33.7627 63.6246 34.4294 63.6947 34.997 64.0026C35.3684 64.2042 35.681 64.4988 35.9039 64.8576C36.1269 65.2164 36.2525 65.627 36.2685 66.049C36.3218 66.4756 36.1563 66.9122 35.9745 67.3019ZM32.3922 74.4255C32.1264 75.0134 31.638 75.4717 31.0342 75.6999C30.4304 75.9281 29.7606 75.9075 29.172 75.6426C28.8776 75.5113 28.6122 75.323 28.3912 75.0884C28.1702 74.8539 27.998 74.5779 27.8846 74.2763C27.7712 73.9748 27.7188 73.6537 27.7305 73.3318C27.7423 73.0099 27.8179 72.6936 27.9529 72.4011C28.2231 71.8174 28.7136 71.3643 29.3172 71.1408C29.9207 70.9173 30.5883 70.9416 31.174 71.2084C31.5868 71.397 31.9386 71.6972 32.1897 72.075C32.4408 72.4528 32.5813 72.8932 32.5952 73.3465C32.6411 73.7083 32.5076 74.0795 32.3922 74.4255Z" fill="url(#paint0_linear_55_857)"/>
<path d="M43.9647 75.5605C44.8761 75.1026 45.2433 73.9923 44.7848 73.0812C44.3266 72.1709 43.2175 71.8041 42.3069 72.2617L27.6654 79.6202L21.3799 64.478C20.987 63.5316 19.9019 63.0824 18.955 63.4741C18.0065 63.8665 17.5564 64.9541 17.9501 65.9021L24.9366 82.7233C25.382 83.7957 26.644 84.2646 27.6816 83.7432L43.9647 75.5605Z" fill="url(#paint1_linear_55_857)"/>
<path d="M75.406 221.343C75.7308 220.791 76.2598 220.39 76.8785 220.225C77.4972 220.061 78.1559 220.146 78.712 220.463C78.9886 220.624 79.2308 220.838 79.4247 221.092C79.6187 221.346 79.7606 221.636 79.8424 221.945C79.9242 222.254 79.9443 222.576 79.9016 222.892C79.8588 223.209 79.754 223.514 79.5931 223.791C79.4323 224.067 79.2186 224.309 78.9642 224.503C78.7098 224.696 78.4197 224.838 78.1104 224.92C77.8012 225.002 77.4788 225.022 77.1618 224.979C76.8448 224.936 76.5393 224.832 76.2628 224.671C75.9038 224.465 75.6032 224.171 75.3894 223.817C75.1756 223.463 75.0556 223.06 75.0409 222.647C75.0366 222.187 75.1632 221.734 75.406 221.343ZM82.5266 225.312C82.8053 224.73 83.304 224.282 83.9129 224.068C84.5218 223.853 85.1912 223.889 85.7738 224.167C86.0654 224.304 86.3266 224.499 86.5425 224.738C86.7583 224.978 86.9244 225.257 87.0311 225.562C87.1378 225.866 87.183 226.188 87.1641 226.509C87.1451 226.831 87.0624 227.146 86.9208 227.435C86.7807 227.725 86.5847 227.983 86.344 228.197C86.1033 228.41 85.8227 228.573 85.5185 228.677C85.2142 228.782 84.8923 228.825 84.5713 228.804C84.2503 228.783 83.9366 228.699 83.6483 228.557C83.2518 228.365 82.915 228.069 82.6736 227.701C82.4322 227.332 82.2954 226.905 82.2776 226.466C82.2646 226.066 82.35 225.67 82.5266 225.312ZM89.9686 228.757C90.0869 228.46 90.2626 228.189 90.4858 227.96C90.7089 227.731 90.9751 227.548 91.2692 227.421C91.5632 227.295 91.8793 227.227 92.1994 227.223C92.5195 227.219 92.8373 227.278 93.1346 227.396C93.432 227.514 93.7032 227.69 93.9327 227.913C94.1622 228.136 94.3455 228.402 94.472 228.696C94.5986 228.989 94.6659 229.305 94.6701 229.625C94.6744 229.945 94.6155 230.262 94.4969 230.559C94.3787 230.856 94.2029 231.127 93.9797 231.357C93.7566 231.586 93.4904 231.769 93.1963 231.895C92.9023 232.022 92.5862 232.089 92.2661 232.093C91.946 232.098 91.6282 232.039 91.3309 231.92C90.8884 231.747 90.5064 231.448 90.2319 231.06C89.9574 230.672 89.8025 230.213 89.7862 229.738C89.7633 229.406 89.8088 229.073 89.9199 228.759L89.9686 228.757ZM97.5852 231.661C97.787 231.051 98.2221 230.545 98.7956 230.254C99.3691 229.963 100.034 229.911 100.646 230.109C100.954 230.206 101.239 230.363 101.485 230.571C101.731 230.779 101.933 231.033 102.08 231.32C102.227 231.607 102.315 231.92 102.34 232.241C102.365 232.562 102.326 232.885 102.225 233.19C102.128 233.497 101.971 233.782 101.762 234.028C101.554 234.274 101.299 234.476 101.012 234.623C100.726 234.769 100.412 234.858 100.091 234.883C99.7696 234.908 99.4465 234.868 99.1404 234.768C98.668 234.611 98.2548 234.314 97.9566 233.916C97.6583 233.518 97.4893 233.038 97.4721 232.541C97.4548 232.279 97.4777 232.015 97.5401 231.76L97.5852 231.661ZM105.378 234.07C105.453 233.758 105.59 233.464 105.779 233.205C105.969 232.946 106.208 232.727 106.482 232.56C106.757 232.394 107.062 232.283 107.379 232.235C107.697 232.186 108.021 232.201 108.333 232.279C108.643 232.357 108.935 232.495 109.192 232.685C109.448 232.876 109.665 233.115 109.829 233.389C109.994 233.663 110.102 233.967 110.149 234.283C110.196 234.599 110.18 234.922 110.102 235.232C109.944 235.858 109.544 236.395 108.99 236.727C108.436 237.058 107.772 237.156 107.146 236.999C106.618 236.867 106.15 236.562 105.816 236.133C105.482 235.705 105.301 235.177 105.302 234.633C105.285 234.446 105.294 234.257 105.329 234.072L105.378 234.07ZM113.32 235.914C113.436 235.281 113.799 234.719 114.329 234.352C114.859 233.985 115.512 233.843 116.147 233.957C116.781 234.073 117.343 234.435 117.711 234.965C118.078 235.494 118.22 236.147 118.106 236.781C117.99 237.415 117.627 237.976 117.097 238.343C116.567 238.71 115.914 238.852 115.279 238.738C114.721 238.64 114.215 238.351 113.847 237.921C113.479 237.49 113.273 236.945 113.265 236.379C113.258 236.265 113.262 236.151 113.276 236.037L113.32 235.914ZM121.365 237.243C121.431 236.601 121.75 236.012 122.251 235.605C122.752 235.198 123.395 235.006 124.037 235.072C124.358 235.105 124.669 235.201 124.952 235.354C125.235 235.508 125.485 235.716 125.687 235.966C125.889 236.217 126.039 236.505 126.129 236.814C126.219 237.123 126.247 237.447 126.211 237.767C126.175 238.085 126.077 238.393 125.922 238.673C125.767 238.953 125.558 239.2 125.308 239.399C125.057 239.599 124.77 239.747 124.462 239.835C124.154 239.923 123.831 239.95 123.513 239.914C122.929 239.847 122.389 239.573 121.992 239.14C121.595 238.708 121.368 238.146 121.353 237.56L121.34 237.219L121.365 237.243ZM129.486 238.008C129.511 237.365 129.791 236.759 130.263 236.321C130.735 235.883 131.362 235.651 132.006 235.673C132.327 235.686 132.642 235.762 132.933 235.896C133.225 236.031 133.487 236.222 133.704 236.458C133.922 236.694 134.09 236.971 134.2 237.273C134.31 237.574 134.359 237.895 134.344 238.215C134.331 238.536 134.256 238.851 134.121 239.142C133.986 239.433 133.795 239.695 133.558 239.912C133.322 240.129 133.045 240.297 132.743 240.407C132.441 240.517 132.121 240.566 131.8 240.551C131.187 240.525 130.606 240.269 130.174 239.834C129.742 239.399 129.49 238.817 129.469 238.204L129.462 238.009L129.486 238.008ZM137.635 238.237C137.611 237.592 137.844 236.964 138.283 236.491C138.723 236.018 139.332 235.738 139.977 235.714C140.623 235.69 141.252 235.923 141.725 236.362C142.199 236.8 142.479 237.409 142.503 238.054C142.527 238.699 142.294 239.327 141.855 239.8C141.416 240.274 140.806 240.553 140.161 240.577C139.515 240.602 138.887 240.369 138.413 239.93C137.939 239.491 137.66 238.882 137.635 238.237ZM147.98 235.267C148.299 235.238 148.62 235.273 148.926 235.369C149.231 235.465 149.515 235.62 149.761 235.826C150.006 236.032 150.209 236.284 150.356 236.568C150.504 236.851 150.595 237.162 150.622 237.481C150.68 238.121 150.481 238.757 150.071 239.252C149.66 239.746 149.071 240.058 148.431 240.12C147.79 240.177 147.153 239.979 146.658 239.569C146.163 239.159 145.851 238.57 145.789 237.93L145.783 237.785C145.758 237.172 145.966 236.573 146.364 236.106C146.762 235.64 147.322 235.341 147.931 235.269L147.98 235.267ZM155.886 234.214C156.202 234.161 156.526 234.172 156.839 234.244C157.151 234.317 157.447 234.451 157.707 234.638C157.968 234.825 158.189 235.062 158.358 235.334C158.527 235.607 158.64 235.911 158.691 236.227C158.744 236.544 158.734 236.867 158.661 237.18C158.588 237.492 158.455 237.787 158.267 238.047C158.08 238.308 157.843 238.529 157.57 238.697C157.297 238.866 156.994 238.979 156.677 239.03C156.041 239.13 155.391 238.974 154.87 238.597C154.349 238.219 153.998 237.651 153.895 237.017L153.883 236.7C153.86 236.122 154.044 235.554 154.402 235.098C154.76 234.643 155.269 234.33 155.837 234.216L155.886 234.214ZM163.699 232.63C164.009 232.554 164.332 232.54 164.648 232.589C164.964 232.638 165.268 232.748 165.541 232.915C165.815 233.081 166.052 233.299 166.241 233.557C166.43 233.815 166.566 234.108 166.642 234.418C166.718 234.729 166.732 235.051 166.683 235.367C166.634 235.683 166.523 235.986 166.357 236.259C166.19 236.532 165.972 236.77 165.714 236.959C165.456 237.147 165.163 237.283 164.852 237.359C164.541 237.435 164.218 237.448 163.902 237.4C163.586 237.351 163.283 237.24 163.009 237.074C162.736 236.908 162.498 236.689 162.309 236.432C162.12 236.174 161.984 235.881 161.908 235.57L161.89 235.084C161.864 234.537 162.024 233.997 162.343 233.552C162.663 233.107 163.123 232.783 163.65 232.631L163.699 232.63ZM171.393 230.489C172.006 230.294 172.672 230.348 173.245 230.642C173.817 230.935 174.251 231.443 174.45 232.054C174.547 232.359 174.582 232.68 174.554 232.999C174.527 233.318 174.436 233.628 174.288 233.911C174.141 234.195 173.938 234.447 173.693 234.653C173.448 234.858 173.164 235.013 172.859 235.109C172.246 235.305 171.58 235.25 171.007 234.957C170.435 234.664 170.001 234.156 169.802 233.544C169.77 233.327 169.762 233.107 169.777 232.888C169.751 232.374 169.889 231.865 170.171 231.435C170.452 231.004 170.863 230.674 171.344 230.491L171.393 230.489ZM178.895 227.772C179.494 227.53 180.164 227.535 180.758 227.787C181.353 228.038 181.823 228.516 182.065 229.113C182.185 229.411 182.244 229.729 182.24 230.05C182.236 230.37 182.168 230.687 182.041 230.982C181.914 231.276 181.73 231.542 181.5 231.766C181.269 231.989 180.997 232.164 180.698 232.282C180.1 232.524 179.429 232.518 178.835 232.267C178.24 232.015 177.77 231.538 177.528 230.94C177.421 230.679 177.361 230.401 177.351 230.119C177.33 229.622 177.463 229.131 177.73 228.712C177.997 228.292 178.387 227.965 178.846 227.773L178.895 227.772ZM186.085 224.53C186.372 224.39 186.685 224.307 187.004 224.287C187.324 224.267 187.644 224.311 187.947 224.415C188.25 224.519 188.529 224.681 188.769 224.893C189.008 225.105 189.204 225.362 189.344 225.649C189.485 225.937 189.568 226.249 189.588 226.568C189.607 226.887 189.564 227.207 189.46 227.51C189.356 227.812 189.193 228.091 188.981 228.331C188.769 228.57 188.512 228.766 188.224 228.906C187.937 229.046 187.624 229.129 187.305 229.149C186.985 229.169 186.665 229.125 186.362 229.021C186.059 228.917 185.78 228.755 185.54 228.543C185.301 228.331 185.105 228.074 184.965 227.787C184.814 227.486 184.727 227.158 184.709 226.822C184.693 226.342 184.82 225.868 185.074 225.46C185.327 225.052 185.696 224.727 186.134 224.528L186.085 224.53ZM193.161 220.855C193.439 220.692 193.747 220.586 194.067 220.543C194.386 220.5 194.711 220.52 195.023 220.604C195.334 220.687 195.626 220.831 195.881 221.028C196.137 221.225 196.35 221.471 196.509 221.751C196.831 222.311 196.917 222.975 196.748 223.598C196.58 224.221 196.171 224.751 195.611 225.073C195.051 225.394 194.386 225.48 193.763 225.311C193.139 225.143 192.609 224.734 192.287 224.175C192.088 223.838 191.973 223.458 191.952 223.067C191.932 222.623 192.035 222.183 192.248 221.792C192.461 221.402 192.776 221.078 193.161 220.855ZM199.948 216.63C200.482 216.274 201.134 216.143 201.764 216.265C202.394 216.387 202.95 216.753 203.312 217.282C203.492 217.547 203.618 217.845 203.683 218.159C203.747 218.472 203.75 218.796 203.689 219.11C203.628 219.425 203.506 219.724 203.33 219.991C203.153 220.259 202.925 220.488 202.659 220.668C202.393 220.846 202.093 220.971 201.778 221.034C201.463 221.097 201.139 221.097 200.824 221.034C200.509 220.971 200.21 220.847 199.943 220.668C199.676 220.489 199.448 220.259 199.27 219.991C199.02 219.62 198.878 219.188 198.858 218.741C198.831 218.313 198.917 217.886 199.108 217.503C199.299 217.119 199.588 216.793 199.945 216.557L199.948 216.63ZM206.4 211.931C206.653 211.733 206.943 211.587 207.253 211.502C207.562 211.417 207.886 211.393 208.204 211.434C208.523 211.474 208.831 211.576 209.109 211.736C209.388 211.895 209.633 212.108 209.829 212.362C210.027 212.615 210.172 212.904 210.258 213.213C210.343 213.523 210.367 213.846 210.327 214.164C210.286 214.482 210.184 214.79 210.024 215.068C209.865 215.347 209.652 215.591 209.397 215.787C209.144 215.985 208.855 216.13 208.545 216.216C208.236 216.301 207.912 216.324 207.593 216.284C207.275 216.244 206.967 216.142 206.688 215.982C206.41 215.823 206.165 215.61 205.969 215.356C205.665 214.954 205.493 214.467 205.478 213.962C205.446 213.563 205.513 213.162 205.674 212.795C205.834 212.428 206.083 212.106 206.398 211.858L206.4 211.931ZM212.545 206.829C212.783 206.615 213.061 206.45 213.364 206.344C213.666 206.237 213.986 206.191 214.306 206.209C214.626 206.226 214.939 206.306 215.228 206.445C215.517 206.583 215.775 206.778 215.989 207.016C216.202 207.256 216.365 207.535 216.47 207.838C216.574 208.14 216.618 208.461 216.598 208.781C216.579 209.1 216.496 209.413 216.355 209.701C216.214 209.989 216.018 210.246 215.777 210.458C215.539 210.672 215.261 210.837 214.959 210.943C214.657 211.049 214.337 211.095 214.017 211.078C213.697 211.061 213.383 210.98 213.095 210.842C212.806 210.703 212.547 210.509 212.334 210.271C211.963 209.843 211.753 209.3 211.739 208.735C211.708 208.37 211.76 208.002 211.89 207.66C212.021 207.318 212.227 207.01 212.494 206.758L212.545 206.829ZM218.308 201.304C218.526 201.067 218.788 200.876 219.08 200.742C219.372 200.607 219.688 200.531 220.009 200.519C220.33 200.507 220.651 200.559 220.952 200.671C221.253 200.783 221.529 200.954 221.764 201.174C222.001 201.391 222.192 201.653 222.327 201.945C222.462 202.237 222.537 202.552 222.549 202.873C222.562 203.194 222.51 203.514 222.398 203.815C222.285 204.116 222.114 204.392 221.895 204.627C221.456 205.097 220.848 205.374 220.205 205.398C219.562 205.422 218.936 205.191 218.463 204.756C218.011 204.321 217.744 203.73 217.718 203.104C217.68 202.768 217.713 202.428 217.814 202.105C217.916 201.783 218.083 201.485 218.305 201.231L218.308 201.304ZM223.714 195.353C224.133 194.864 224.728 194.56 225.37 194.509C226.013 194.457 226.649 194.662 227.14 195.078C227.63 195.496 227.934 196.091 227.986 196.733C228.037 197.375 227.832 198.01 227.416 198.501C226.997 198.991 226.402 199.294 225.759 199.346C225.117 199.397 224.481 199.193 223.989 198.776C223.732 198.561 223.522 198.295 223.372 197.995C223.222 197.695 223.136 197.367 223.119 197.032C223.098 196.417 223.311 195.818 223.714 195.353ZM228.694 189.102C229.081 188.59 229.654 188.25 230.29 188.158C230.925 188.066 231.572 188.228 232.088 188.609C232.347 188.799 232.567 189.038 232.733 189.312C232.9 189.587 233.01 189.891 233.058 190.209C233.107 190.526 233.092 190.85 233.014 191.161C232.937 191.473 232.798 191.766 232.607 192.023C232.415 192.281 232.175 192.498 231.899 192.662C231.624 192.826 231.318 192.934 231 192.98C230.683 193.026 230.359 193.009 230.048 192.929C229.737 192.85 229.445 192.71 229.189 192.517C228.898 192.299 228.659 192.018 228.491 191.696C228.323 191.374 228.229 191.018 228.217 190.655C228.193 190.098 228.362 189.55 228.694 189.102ZM233.322 182.548C233.494 182.276 233.719 182.042 233.983 181.857C234.247 181.673 234.545 181.543 234.86 181.474C235.175 181.406 235.5 181.4 235.817 181.458C236.134 181.516 236.436 181.637 236.706 181.812C237.245 182.164 237.622 182.715 237.756 183.344C237.889 183.974 237.768 184.63 237.418 185.17C237.069 185.712 236.52 186.094 235.89 186.232C235.26 186.369 234.601 186.252 234.058 185.905C233.727 185.694 233.452 185.406 233.257 185.066C233.061 184.725 232.951 184.343 232.936 183.951C232.89 183.466 233.088 182.975 233.322 182.548ZM237.402 175.698C237.71 175.131 238.231 174.71 238.851 174.527C239.47 174.343 240.137 174.414 240.704 174.721C241.272 175.03 241.694 175.55 241.877 176.169C242.06 176.788 241.99 177.454 241.682 178.021C241.373 178.588 240.852 179.009 240.233 179.192C239.614 179.375 238.947 179.305 238.379 178.997C238.008 178.796 237.695 178.501 237.473 178.142C237.25 177.784 237.124 177.373 237.108 176.951C237.055 176.524 237.22 176.088 237.402 175.698ZM240.984 168.574C241.25 167.987 241.738 167.528 242.342 167.3C242.946 167.072 243.616 167.093 244.204 167.357C244.499 167.489 244.764 167.677 244.985 167.912C245.206 168.146 245.379 168.422 245.492 168.724C245.605 169.025 245.658 169.346 245.646 169.668C245.634 169.99 245.559 170.306 245.424 170.599C245.153 171.183 244.663 171.636 244.059 171.859C243.456 172.083 242.788 172.058 242.202 171.792C241.79 171.603 241.438 171.303 241.187 170.925C240.936 170.547 240.795 170.107 240.781 169.654C240.735 169.292 240.869 168.92 240.984 168.574Z" fill="url(#paint2_linear_55_857)"/>
<path d="M229.412 167.439C228.5 167.897 228.133 169.008 228.592 169.919C229.05 170.829 230.159 171.196 231.07 170.738L245.711 163.38L251.997 178.522C252.389 179.468 253.475 179.918 254.421 179.526C255.37 179.133 255.82 178.046 255.426 177.098L248.44 160.277C247.994 159.204 246.732 158.735 245.695 159.257L229.412 167.439Z" fill="url(#paint3_linear_55_857)"/>
<path d="M53.629 133.054L73.2412 138.21L58.8374 152.474L53.629 133.054Z" fill="#282D31"/>
<path d="M53.629 133.054L39.2252 147.317L58.8374 152.474L53.629 133.054Z" fill="#CAE5EE"/>
<path d="M58.8374 152.474L78.4491 157.631L64.0452 171.894L58.8374 152.474Z" fill="#0F0F10"/>
<path d="M58.8374 152.474L44.4331 166.737L64.0452 171.894L58.8374 152.474Z" fill="#CAE5EE"/>
<path d="M48.4198 113.632L68.032 118.789L53.6282 133.052L48.4198 113.632Z" fill="#202020"/>
<path d="M48.4198 113.632L34.016 127.895L53.6282 133.052L48.4198 113.632Z" fill="#3E3E3E"/>
<path d="M34.016 127.895L53.6282 133.052L39.2236 147.316L34.016 127.895Z" fill="#0F0F10"/>
<path d="M34.016 127.895L19.6114 142.159L39.2236 147.316L34.016 127.895Z" fill="#202020"/>
<path d="M39.2236 147.316L58.8362 152.473L44.4323 166.736L39.2236 147.316Z" fill="#D6E7EE"/>
<path d="M39.2236 147.316L24.8202 161.579L44.4323 166.736L39.2236 147.316Z" fill="#CAE5EE"/>
<path d="M19.6147 142.159L39.2268 147.316L24.823 161.58L19.6147 142.159Z" fill="#B1D9E3"/>
<path d="M19.6147 142.159L5.21083 156.423L24.823 161.58L19.6147 142.159Z" fill="#0F0F10"/>
<path d="M24.823 161.58L44.4356 166.737L30.0317 181L24.823 161.58Z" fill="#D6E7EE"/>
<path d="M24.823 161.58L10.4196 175.843L30.0317 181L24.823 161.58Z" fill="#3E3E3E"/>
<path d="M14.4068 122.738L34.019 127.895L19.6151 142.158L14.4068 122.738Z" fill="#282D31"/>
<path d="M14.4068 122.738L0.00296674 137.001L19.6151 142.158L14.4068 122.738Z" fill="#202020"/>
<path d="M73.2419 138.209L58.8381 152.473L78.4502 157.63L73.2419 138.209Z" fill="#141819"/>
<path d="M68.0336 118.789L53.6298 133.053L73.2419 138.209L68.0336 118.789Z" fill="#242423"/>
<path d="M5.20786 156.422L24.8202 161.579L10.4162 175.843L5.20786 156.422Z" fill="#242423"/>
<path d="M0 137.002L19.6114 142.159L5.20786 156.422L0 137.002Z" fill="#141819"/>
<path fill-rule="evenodd" clip-rule="evenodd" d="M208.334 131.304L208.398 131.412C208.583 131.724 208.897 131.942 209.259 132.008C209.472 132.048 209.579 132.043 209.842 131.98L210.057 131.928L209.905 131.384L209.728 131.424C209.539 131.467 209.464 131.469 209.333 131.435C209.158 131.39 208.966 131.227 208.896 131.065C208.875 131.015 208.487 129.587 207.831 127.14L206.799 123.294L206.221 123.449L208.334 131.304ZM228.195 120.471L227.335 120.708L227.477 121.264L228.345 121.032L229.824 126.546L230.402 126.391L228.923 120.877L230.754 120.387L230.604 119.826L228.773 120.316L228.046 117.606L227.468 117.761L228.195 120.471ZM238.799 115.629L239.377 115.474L239.151 114.633L238.573 114.788L238.799 115.629ZM185.781 131.833C185.406 131.973 185.221 132.074 185.02 132.249C184.715 132.514 184.563 132.879 184.586 133.294C184.594 133.446 184.64 133.67 184.693 133.812C184.873 134.304 185.188 134.563 185.804 134.726C185.894 134.75 186.399 134.846 186.926 134.938C188.427 135.202 188.614 135.241 188.826 135.327C189.043 135.415 189.214 135.56 189.307 135.735C189.377 135.867 189.425 136.094 189.413 136.238C189.38 136.637 189.101 136.878 188.382 137.128C188.106 137.224 187.746 137.307 187.514 137.329C187.138 137.365 186.609 137.352 186.099 137.295C185.961 137.279 185.847 137.267 185.845 137.268C185.834 137.271 185.77 137.831 185.78 137.836C185.803 137.847 186.207 137.894 186.426 137.912C186.836 137.944 187.247 137.94 187.608 137.9C187.769 137.882 187.835 137.868 188.181 137.775C188.493 137.692 188.605 137.657 188.73 137.606C189.17 137.424 189.464 137.236 189.677 137C189.991 136.652 190.083 136.244 189.955 135.767C189.846 135.361 189.629 135.079 189.273 134.882C188.964 134.711 188.602 134.623 187.392 134.421C186.445 134.263 185.979 134.176 185.843 134.132C185.674 134.078 185.512 133.977 185.408 133.862C185.3 133.742 185.244 133.63 185.208 133.455C185.137 133.113 185.212 132.859 185.442 132.663C185.604 132.525 185.834 132.412 186.101 132.341C186.374 132.268 186.816 132.257 187.7 132.302C187.982 132.316 188.134 132.319 188.14 132.309C188.159 132.277 188.279 131.789 188.269 131.784C188.263 131.781 188.144 131.755 188.005 131.728C187.454 131.618 186.976 131.602 186.463 131.674C186.317 131.695 185.876 131.797 185.781 131.833ZM196.867 128.872C195.943 129.214 195.324 130.14 195.387 131.088C195.401 131.308 195.447 131.508 195.705 132.468C195.965 133.437 196.026 133.638 196.123 133.833C196.458 134.514 197.179 134.986 197.962 135.038C198.221 135.055 198.459 135.03 198.741 134.955C199.228 134.825 199.584 134.614 199.889 134.273C200.285 133.832 200.487 133.306 200.472 132.757C200.465 132.486 200.458 132.456 200.145 131.286C199.831 130.116 199.822 130.087 199.692 129.848C199.466 129.431 199.092 129.099 198.619 128.895C198.075 128.66 197.459 128.652 196.867 128.872ZM249.976 114.654C249.406 114.871 248.958 115.288 248.699 115.846C248.506 116.26 248.455 116.687 248.542 117.155C248.58 117.362 249.059 119.148 249.129 119.347C249.331 119.915 249.719 120.347 250.257 120.601C250.769 120.843 251.293 120.886 251.861 120.734C252.347 120.604 252.701 120.393 253.01 120.049C253.384 119.633 253.587 119.125 253.589 118.601C253.59 118.316 253.589 118.312 253.256 117.068C252.921 115.821 252.921 115.82 252.775 115.569C252.509 115.112 252.038 114.752 251.486 114.583C251.023 114.442 250.466 114.468 249.976 114.654ZM258.63 112.331C258.627 112.337 258.989 113.705 259.436 115.371L260.249 118.401L260.827 118.246L259.348 112.732L260.351 112.464C261.439 112.172 261.491 112.161 261.699 112.172C262.128 112.195 262.551 112.429 262.794 112.779C262.926 112.97 262.895 112.865 263.527 115.223L264.103 117.369L264.682 117.214L264.082 114.993C263.483 112.775 263.482 112.771 263.426 112.665C263.297 112.421 263.12 112.203 262.925 112.047C262.786 111.936 262.532 111.792 262.358 111.725C262.165 111.65 261.889 111.595 261.695 111.593C261.387 111.589 261.477 111.57 259.987 111.964C259.244 112.16 258.634 112.325 258.63 112.331ZM270.769 109.082C270.105 109.317 269.734 109.651 269.612 110.124C269.521 110.477 269.591 110.952 269.785 111.293C269.985 111.644 270.269 111.836 270.791 111.974C270.884 111.999 271.396 112.096 271.93 112.19C273.425 112.453 273.611 112.491 273.817 112.577C274.036 112.667 274.206 112.814 274.297 112.989C274.349 113.089 274.405 113.329 274.404 113.44C274.401 113.678 274.286 113.886 274.07 114.045C273.759 114.274 273.008 114.53 272.507 114.577C272.124 114.613 271.597 114.6 271.087 114.543C270.949 114.528 270.834 114.515 270.832 114.516C270.821 114.519 270.757 115.079 270.767 115.084C270.79 115.095 271.194 115.142 271.411 115.16C271.818 115.192 272.199 115.189 272.556 115.152C272.719 115.135 272.807 115.118 273.073 115.052C273.863 114.856 274.412 114.567 274.721 114.183C274.809 114.074 274.913 113.879 274.948 113.757C275.015 113.524 275.017 113.348 274.954 113.079C274.887 112.785 274.799 112.609 274.626 112.417C274.427 112.198 274.154 112.045 273.773 111.942C273.437 111.851 273.217 111.809 272.183 111.637C271.471 111.518 270.956 111.421 270.83 111.38C270.607 111.309 270.409 111.162 270.296 110.985C270.235 110.89 270.166 110.619 270.167 110.481C270.169 110.24 270.253 110.059 270.431 109.909C270.649 109.726 271.011 109.578 271.325 109.545C271.602 109.516 272.047 109.517 272.688 109.55C272.936 109.563 273.122 109.567 273.126 109.559C273.131 109.552 273.164 109.431 273.2 109.292L273.267 109.037L273.215 109.023C273.186 109.015 273.053 108.988 272.918 108.962C272.333 108.853 271.81 108.85 271.258 108.956C271.103 108.985 270.878 109.043 270.769 109.082ZM216.71 125.878C217.033 127.081 217.289 128.019 217.318 128.1C217.441 128.444 217.622 128.709 217.889 128.934C218.288 129.272 218.777 129.433 219.328 129.408L219.455 129.402L222.21 128.673L220.583 122.609L220.005 122.764L221.484 128.278L220.481 128.546C219.657 128.767 219.458 128.817 219.365 128.827C219.058 128.859 218.796 128.805 218.521 128.654C218.23 128.493 218.025 128.267 217.906 127.977C217.877 127.907 217.692 127.23 217.297 125.758L216.729 123.641L216.151 123.796L216.71 125.878ZM240.929 123.573L241.507 123.418L239.903 117.437L239.325 117.592L240.929 123.573ZM197.515 129.304C197.867 129.263 198.172 129.322 198.492 129.492C198.814 129.664 199.01 129.856 199.192 130.176C199.227 130.239 199.269 130.383 199.541 131.385C199.814 132.388 199.853 132.538 199.865 132.651C199.937 133.338 199.52 134.034 198.869 134.312C198.361 134.53 197.828 134.518 197.367 134.278C196.994 134.083 196.738 133.801 196.594 133.426C196.559 133.333 196.463 132.987 196.264 132.231C195.957 131.064 195.964 131.1 195.98 130.852C195.995 130.61 196.072 130.374 196.21 130.141C196.259 130.059 196.329 129.955 196.367 129.909C196.515 129.728 196.758 129.544 196.974 129.451C197.118 129.388 197.366 129.321 197.515 129.304ZM250.72 115.074C251.046 115.056 251.316 115.116 251.609 115.272C251.961 115.459 252.192 115.701 252.34 116.036C252.379 116.122 252.441 116.34 252.677 117.223C252.991 118.392 252.996 118.413 252.989 118.648C252.976 119.077 252.751 119.533 252.403 119.835C252.032 120.157 251.443 120.313 250.949 120.221C250.765 120.186 250.625 120.133 250.435 120.027C250.13 119.857 249.935 119.661 249.778 119.367C249.721 119.261 249.716 119.245 249.424 118.171C249.1 116.984 249.087 116.923 249.094 116.684C249.11 116.081 249.521 115.482 250.091 115.23C250.231 115.168 250.581 115.081 250.72 115.074Z" fill="#282D31"/>
<path fill-rule="evenodd" clip-rule="evenodd" d="M241.735 75.2777C240.332 75.9377 239.247 77.0293 238.673 78.3579C237.934 80.0683 237.946 81.9065 238.715 84.774L239.057 86.0483L235.946 86.9233L236.73 89.846L239.862 89.0499L245.132 108.702L248.51 107.798L243.239 88.1427L250.436 86.2161L249.652 83.2934L242.439 85.2242L242.029 83.5526C241.716 82.2823 241.618 81.7586 241.618 81.3717C241.621 79.3354 242.607 78.0575 244.587 77.524C245.335 77.3223 246.008 77.2367 247.139 77.1989C247.582 77.1841 247.975 77.1639 248.012 77.154C248.05 77.1439 247.911 76.5087 247.689 75.6828L247.3 74.2295L246.65 74.2281C246.293 74.2273 245.691 74.2615 245.313 74.304C244.433 74.4028 242.445 74.9441 241.735 75.2777ZM174.571 97.9897L178.39 96.9674L177.39 93.241L173.572 94.2632L174.571 97.9897ZM89.3767 150.399L92.8277 149.475L86.2363 124.749L94.0044 131.41C98.6881 135.426 101.811 138.054 101.87 138.027C101.924 138.003 103.496 133.63 105.364 128.309L108.76 118.635L115.447 143.42L118.898 142.496L110.667 111.808L107.166 112.745L103.805 122.612C101.956 128.039 100.44 132.48 100.435 132.481C100.43 132.482 96.8899 129.396 92.5678 125.623L84.7094 118.763L81.1464 119.711L89.3767 150.399ZM255.14 81.7459L251.982 82.5912L252.785 85.587L255.943 84.7416L257.84 91.8107C258.948 95.9415 259.836 99.1311 259.975 99.4843C260.931 101.899 262.5 103.172 264.757 103.362C265.724 103.443 266.593 103.348 267.776 103.032C269.194 102.652 270.456 102.018 271.329 101.246L271.632 100.979L271.248 99.5473C270.89 98.2127 270.856 98.1218 270.749 98.2029C269.518 99.1396 268.778 99.5029 267.508 99.7951C265.613 100.231 264.497 99.9001 263.585 98.6325L263.301 98.2385L259.391 83.8186L266.591 81.8911L265.788 78.8953L258.593 80.8215L256.722 74L253.297 74.8749L255.14 81.7459ZM154.477 108.23C153.132 108.774 151.665 109.758 150.684 110.774C148.373 113.17 147.296 116.047 147.535 119.189C147.575 119.724 147.69 120.272 148.004 121.43C148.461 123.119 148.759 123.806 149.552 125.001C151.556 128.022 155.296 129.8 159.225 129.599C160.299 129.545 162.491 128.978 163.434 128.512C165.456 127.513 167.025 126.031 168.204 124.009C168.502 123.498 168.831 122.87 168.936 122.614L169.126 122.149L169.634 123.956C169.932 125.016 170.172 126.007 170.213 126.354C170.44 128.238 170.139 129.779 169.263 131.206C168.067 133.153 166.455 134.248 163.712 134.976C161.296 135.617 159.213 135.678 156.761 135.177C156.234 135.07 155.449 134.866 155.017 134.723L154.232 134.465L153.826 135.932C153.604 136.739 153.43 137.431 153.44 137.469C153.471 137.584 154.803 137.953 156.118 138.21C157.994 138.577 159.479 138.644 161.544 138.456C162.409 138.377 162.79 138.297 164.554 137.823C166.733 137.238 167.485 136.941 168.79 136.155C171.925 134.265 173.674 131.323 173.748 127.812C173.788 125.954 173.966 126.745 170.94 115.349L168.198 105.021L164.815 105.927L165.901 109.979L165.592 109.75C164.875 109.219 163.002 108.226 162.227 107.966C160.816 107.493 159.334 107.314 157.858 107.439C157.013 107.511 155.216 107.931 154.477 108.23ZM218.276 91.1525C215.743 92.1239 213.747 93.7988 212.339 96.1357C210.971 98.4066 210.387 100.655 210.503 103.199C210.535 103.888 210.596 104.198 211.009 105.738C211.422 107.278 211.524 107.576 211.842 108.19C212.653 109.755 213.685 111.056 214.933 112.088C215.827 112.827 217.632 113.86 218.633 114.206C220.172 114.738 221.762 114.948 223.442 114.842C224.169 114.796 224.529 114.725 225.909 114.355C227.591 113.904 228.112 113.697 229.27 113.018C232.678 111.022 235.047 106.947 235.125 102.949C235.165 100.907 234.656 98.7006 233.709 96.806C231.868 93.1235 227.757 90.4485 223.66 90.2668C221.858 90.1869 219.996 90.4933 218.276 91.1525ZM193.091 97.9767C189.915 99.1579 187.872 101.796 187.955 104.606C188.006 106.306 188.739 108.006 189.826 108.941C190.555 109.568 191.352 109.914 192.715 110.196C194.232 110.51 194.989 110.586 197.221 110.646C201.618 110.765 203.114 111.146 203.877 112.342C204.201 112.849 204.41 113.816 204.333 114.452C204.193 115.62 203.418 116.666 202.144 117.409C201.425 117.828 199.618 118.328 198.506 118.415C196.752 118.552 194.685 118.273 192.839 117.65C192.297 117.467 191.835 117.351 191.812 117.392C191.789 117.433 191.543 118.074 191.265 118.815L190.76 120.164L190.956 120.252C191.577 120.531 193.115 120.987 194.054 121.169C198.663 122.065 203.509 120.872 205.867 118.261C207.442 116.517 207.941 114.655 207.446 112.369C207.144 110.977 206.61 110.027 205.666 109.204C205.003 108.625 204.361 108.319 203.091 107.974C201.778 107.617 200.6 107.473 198.166 107.37C194.553 107.218 193.616 107.078 192.719 106.557C192.406 106.375 192.009 106.065 191.836 105.868C191.55 105.541 191.511 105.454 191.382 104.862C191.203 104.036 191.307 103.368 191.725 102.661C192.438 101.456 193.773 100.677 195.74 100.317C197.425 100.008 199.322 100.105 201.191 100.596C201.747 100.741 202.218 100.828 202.238 100.788C202.302 100.657 203.063 97.9879 203.05 97.9394C203.026 97.8507 201.381 97.4358 200.517 97.3007C198.782 97.0291 197.12 97.0476 195.377 97.3577C194.36 97.5386 194.024 97.6294 193.091 97.9767ZM127.765 115.546C126.869 115.884 125.247 116.697 124.365 117.249C123.66 117.691 122.009 118.877 121.835 119.067C121.77 119.138 121.928 119.405 122.604 120.368C123.071 121.035 123.465 121.586 123.478 121.594C123.492 121.602 123.72 121.442 123.987 121.238C125.819 119.838 127.498 118.938 129.417 118.328C131.132 117.783 132.576 117.654 133.952 117.925C134.616 118.056 134.876 118.158 135.583 118.564C136.972 119.364 137.636 120.259 138.197 122.089L138.527 123.167L138.301 123.17C133.73 123.232 129.633 124.23 127.021 125.918C125.387 126.974 124.164 128.419 123.624 129.929C122.955 131.802 123.337 134.423 124.553 136.301C126.402 139.156 130.801 140.169 134.911 138.685C137.751 137.66 139.592 136.061 140.899 133.482L141.143 133L142.03 136.304L145.413 135.398L143.297 127.604C141.191 119.851 141.178 119.808 140.824 119.14C140.045 117.668 139.197 116.657 138.099 115.89C136.276 114.616 133.965 114.195 131.162 114.627C130.308 114.759 128.687 115.197 127.765 115.546ZM182.198 125.55L185.576 124.646L179.502 101.995L176.124 102.899L182.198 125.55ZM159.177 110.292C160.881 110.211 162.409 110.546 163.926 111.337C164.817 111.801 165.432 112.281 166.053 112.996C166.691 113.73 167.043 114.32 167.409 115.273C168.147 117.194 168.122 119.263 167.341 121.035C166.07 123.918 163.175 125.976 159.93 126.306C158.14 126.487 156.376 126.085 154.858 125.148C152.918 123.951 151.678 122.053 151.251 119.626C150.928 117.786 151.139 116.24 151.918 114.749C152.752 113.153 154.293 111.748 155.992 111.035C156.659 110.755 158.506 110.325 159.177 110.292ZM222.358 93.4152C224.001 93.3783 225.341 93.7329 226.832 94.5988C228.839 95.7648 230.143 97.3164 230.932 99.4778C231.391 100.736 231.634 102.338 231.554 103.578C231.396 106.032 230.101 108.509 228.242 109.914C226.476 111.247 223.868 111.91 221.658 111.586C220.316 111.39 218.836 110.739 217.665 109.829C216.953 109.277 215.883 108.046 215.431 107.261C213.922 104.64 213.637 101.357 214.693 98.7598C214.99 98.0266 215.728 96.7684 216.144 96.2853C216.835 95.4807 217.931 94.6731 218.958 94.2099C219.798 93.8316 221.496 93.4344 222.358 93.4152ZM135.27 126.089C136.608 125.91 137.47 125.853 139.015 125.843L139.318 125.841L139.708 127.435C140.142 129.202 140.169 129.546 139.961 130.553C139.788 131.39 139.387 132.224 138.797 132.973C137.562 134.54 136.11 135.46 133.958 136.036C132.844 136.335 131.986 136.422 131.084 136.327C129.539 136.165 128.317 135.493 127.575 134.399C127.15 133.773 126.771 132.36 126.837 131.645C126.966 130.225 127.907 128.867 129.428 127.907C129.895 127.612 130.245 127.441 131.236 127.021C131.662 126.841 134.426 126.202 135.27 126.089Z" fill="#282D31"/>
<defs>
<linearGradient id="paint0_linear_55_857" x1="159.084" y1="39.0902" x2="158.126" y2="8.47853" gradientUnits="userSpaceOnUse">
<stop stop-color="#0091F4"/>
<stop offset="1" stop-color="#0089E7" stop-opacity="0.9"/>
</linearGradient>
<linearGradient id="paint1_linear_55_857" x1="39.112" y1="74.0487" x2="38.8665" y2="64.3061" gradientUnits="userSpaceOnUse">
<stop stop-color="#0091F4"/>
<stop offset="1" stop-color="#0089E7" stop-opacity="0.9"/>
</linearGradient>
<linearGradient id="paint2_linear_55_857" x1="114.293" y1="203.91" x2="115.25" y2="234.521" gradientUnits="userSpaceOnUse">
<stop stop-color="#0091F4"/>
<stop offset="1" stop-color="#0089E7" stop-opacity="0.9"/>
</linearGradient>
<linearGradient id="paint3_linear_55_857" x1="234.264" y1="168.951" x2="234.51" y2="178.694" gradientUnits="userSpaceOnUse">
<stop stop-color="#0091F4"/>
<stop offset="1" stop-color="#0089E7" stop-opacity="0.9"/>
</linearGradient>
</defs>
</svg>
