<svg class="polygon-3" width="88" height="90" viewBox="0 0 88 90" fill="none" xmlns="http://www.w3.org/2000/svg">
<g filter="url(#filter0_f_55_902)">
<path d="M15.3399 15.8036C17.2629 5.6795 29.4449 1.53344 37.2675 8.34068L78.3361 44.0786C86.1587 50.8859 83.7549 63.541 74.0092 66.8578L22.8448 84.2712C13.0992 87.588 3.32095 79.079 5.24398 68.9549L15.3399 15.8036Z" fill="url(#paint0_linear_55_902)"/>
</g>
<defs>
<filter id="filter0_f_55_902" x="0" y="0" width="88" height="90" filterUnits="userSpaceOnUse" color-interpolation-filters="sRGB">
<feFlood flood-opacity="0" result="BackgroundImageFix"/>
<feBlend mode="normal" in="SourceGraphic" in2="BackgroundImageFix" result="shape"/>
<feGaussianBlur stdDeviation="2.5" result="effect1_foregroundBlur_55_902"/>
</filter>
<linearGradient id="paint0_linear_55_902" x1="56.5749" y1="51.5078" x2="20.281" y2="44.5677" gradientUnits="userSpaceOnUse">
<stop stop-color="#7FC4FB"/>
<stop offset="1" stop-color="#7FC4FB" stop-opacity="0.7"/>
</linearGradient>
</defs>
</svg>
