<svg class="polygon-1" width="74" height="77" viewBox="0 0 74 77" fill="none" xmlns="http://www.w3.org/2000/svg">
<g filter="url(#filter0_f_55_888)">
<path d="M39.7056 22.3511C45.0104 18.8475 51.9749 22.5437 52.2417 29.0042L52.9922 47.1745C53.259 53.6351 46.6281 58.0146 41.0565 55.0577L25.3863 46.7413C19.8147 43.7843 19.4812 35.7086 24.786 32.205L39.7056 22.3511Z" fill="url(#paint0_linear_55_888)"/>
</g>
<defs>
<filter id="filter0_f_55_888" x="0" y="0" width="74" height="77" filterUnits="userSpaceOnUse" color-interpolation-filters="sRGB">
<feFlood flood-opacity="0" result="BackgroundImageFix"/>
<feBlend mode="normal" in="SourceGraphic" in2="BackgroundImageFix" result="shape"/>
<feGaussianBlur stdDeviation="10.5" result="effect1_foregroundBlur_55_888"/>
</filter>
<linearGradient id="paint0_linear_55_888" x1="49.3745" y1="42.0051" x2="24.6838" y2="41.964" gradientUnits="userSpaceOnUse">
<stop stop-color="#F18C3C"/>
<stop offset="1" stop-color="#F18C3C" stop-opacity="0.7"/>
</linearGradient>
</defs>
</svg>
