<svg width="90" height="86" viewBox="0 0 90 86" fill="none" xmlns="http://www.w3.org/2000/svg">
<g filter="url(#filter0_f_55_867)">
<path d="M60.3641 73.4594C55.9266 82.7886 43.2022 83.6449 37.4602 75.0006L7.31454 29.618C1.57251 20.9737 7.11939 9.31214 17.2989 8.62716L70.7414 5.03098C80.9209 4.34599 88.0985 15.1514 83.661 24.4806L60.3641 73.4594Z" fill="url(#paint0_linear_55_867)"/>
</g>
<defs>
<filter id="filter0_f_55_867" x="0" y="0" width="90" height="86" filterUnits="userSpaceOnUse" color-interpolation-filters="sRGB">
<feFlood flood-opacity="0" result="BackgroundImageFix"/>
<feBlend mode="normal" in="SourceGraphic" in2="BackgroundImageFix" result="shape"/>
<feGaussianBlur stdDeviation="2.5" result="effect1_foregroundBlur_55_867"/>
</filter>
<linearGradient id="paint0_linear_55_867" x1="57.8974" y1="49.1824" x2="20.889" y2="41.5422" gradientUnits="userSpaceOnUse">
<stop stop-color="#7FC4FB"/>
<stop offset="1" stop-color="#7FC4FB" stop-opacity="0.7"/>
</linearGradient>
</defs>
</svg>
